Simple Hierarchical Modeling exercise
…
vl_prop <- poll_data %>% 
  # Excluding Alaska, Hawai, DC
  filter(state %nin% c('alaska', 'hawaii', 'washington dc')) %>%
  drop_na(ideo) %>% 
  mutate(vl = as.numeric(ideo == 'very liberal')) %>% 
  group_by(state) %>% 
  summarise(vl_p = sum(vl)/n())

vl_prop_ovs <- left_join(vl_prop, elec_2008, by='state')
vl_prop_ovs <- vl_prop_ovs %>% mutate(state_abb=state.abb[match(str_to_title(state), state.name)])

vl_prop_ovs

## # A tibble: 48 x 9
##    state         vl_p vote_Obama vote_Obama_pct vote_McCain vote_McCain_pct
##    <chr>        <dbl>      <dbl>          <dbl>       <dbl>           <dbl>
##  1 alabama     0.0486     811764           38.8     1264879            60.4
##  2 arizona     0.0525     948648           45       1132560            53.8
##  3 arkansas    0.0230     418049           38.8      632672            58.8
##  4 california  0.0637    7245731           60.9     4434146            37.3
##  5 colorado    0.0581    1216793           53.5     1020135            44.9
##  6 connecticut 0.0358     979316           60.5      620210            38.3
##  7 delaware    0.0603     255394           61.9      152356            37  
##  8 florida     0.0379    4143957           50.9     3939380            48.4
##  9 georgia     0.0414    1843452           47       2048244            52.2
## 10 idaho       0.101      235219           36.1      400989            61.5
## # ... with 38 more rows, and 3 more variables: electoral_vote_dem <dbl>,
## #   electoral_vote_rep <dbl>, state_abb <chr>
…
